192.168.1.101 - - [27/Apr/2022:16:22:36 +0400] "GET /sample HTTP/1.1" 302 -
192.168.1.101 - - [27/Apr/2022:16:22:36 +0400] "GET /sample/ HTTP/1.1" 200 636
192.168.1.101 - - [27/Apr/2022:16:22:36 +0400] "GET /sample/images/tomcat.gif HTTP/1.1" 200 1441
192.168.1.101 - - [27/Apr/2022:16:22:36 +0400] "GET /favicon.ico HTTP/1.1" 200 21630
192.168.1.101 - - [27/Apr/2022:16:26:45 +0400] "GET /sample/ HTTP/1.1" 200 636
192.168.1.101 - - [27/Apr/2022:16:26:45 +0400] "GET /sample/images/tomcat.gif HTTP/1.1" 200 1441
192.168.1.101 - - [27/Apr/2022:16:26:45 +0400] "GET /favicon.ico HTTP/1.1" 200 21630
192.168.1.101 - - [27/Apr/2022:17:22:52 +0400] "GET /sample_green/ HTTP/1.1" 200 636
192.168.1.101 - - [27/Apr/2022:17:22:52 +0400] "GET /sample_green/images/tomcat.gif HTTP/1.1" 200 1441
192.168.1.101 - - [27/Apr/2022:17:22:52 +0400] "GET /favicon.ico HTTP/1.1" 200 21630
192.168.1.101 - - [27/Apr/2022:20:28:14 +0400] "GET /sample_green/ HTTP/1.1" 200 636
192.168.1.101 - - [27/Apr/2022:20:28:14 +0400] "GET /sample_green/images/tomcat.gif HTTP/1.1" 200 1441
192.168.1.101 - - [27/Apr/2022:20:28:14 +0400] "GET /favicon.ico HTTP/1.1" 200 21630
